{
	"variables": [],
	"info": {
		"name": "UserFeedback",
		"_postman_id": "03f1f26f-25d7-4342-7b41-8278b18568f4",
		"description": "The APIs are used to retrieve the Feedbacks submitted by users, create a new feedback after business rules are validated and to retrieve a single request by feedbackID",
		"schema": "https://schema.getpostman.com/json/collection/v2.0.0/collection.json"
	},
	"item": [
		{
			"name": "SaveFeedBack - Successful Save",
			"event": [
				{
					"listen": "test",
					"script": {
						"type": "text/javascript",
						"exec": [
							"",
							"tests[\"Status code is 200/201\"] = responseCode.code === 200 ||responseCode.code === 201 ;"
						]
					}
				}
			],
			"request": {
				"url": "http://localhost:8000/api/user",
				"method": "POST",
				"header": [
					{
						"key": "Content-Type",
						"value": "application/json",
						"description": ""
					}
				],
				"body": {
					"mode": "raw",
					"raw": " {\r\n   \"feedback\": \"Sample Feedback\",\r\n   \"starRating\": 2.5,\r\n   \"email\" : \"user@gmail.com\",\r\n    \"userName\": \"userNameX\"\r\n  }"
				},
				"description": "This POST Request will successfully save a Feedback submitted by a user"
			},
			"response": []
		},
		{
			"name": "SaveFeedBack - Duplicate Feedback",
			"event": [
				{
					"listen": "test",
					"script": {
						"type": "text/javascript",
						"exec": [
							"",
							"tests[\"Status code is 200\"] = responseCode.code === 200 ;",
							"tests[\"Duplicate Feedback Captured\"] = responseBody.has(\"Cannot submit more than one feedback per user\");"
						]
					}
				}
			],
			"request": {
				"url": "http://localhost:8000/api/user",
				"method": "POST",
				"header": [
					{
						"key": "Content-Type",
						"value": "application/json",
						"description": ""
					}
				],
				"body": {
					"mode": "raw",
					"raw": " {\r\n   \"feedback\": \"Sample2 Feedback\",\r\n   \"starRating\": 2.5,\r\n   \"email\" : \"user@gmail.com\",\r\n    \"userName\": \"userNameX\"\r\n  }"
				},
				"description": "A duplicate request to submit feedback from the same user - User Identified using unique email."
			},
			"response": []
		},
		{
			"name": "SaveFeedBack - Errors",
			"event": [
				{
					"listen": "test",
					"script": {
						"type": "text/javascript",
						"exec": [
							"",
							"tests[\"Status code is 200\"] = responseCode.code === 200;",
							"",
							"",
							"tests[\"Email Error Captured\"] = responseBody.has(\"'Email' is not a valid email address.\");",
							"tests[\"UserName Error Captured\"] = responseBody.has(\"'User Name' is not in the correct format.\");",
							"tests[\"Rating Error Captured\"] = responseBody.has(\"'Star Rating' must be between 1 and 5. You entered 7.5.\");"
						]
					}
				}
			],
			"request": {
				"url": "http://localhost:8000/api/user",
				"method": "POST",
				"header": [
					{
						"key": "Content-Type",
						"value": "application/json",
						"description": ""
					}
				],
				"body": {
					"mode": "raw",
					"raw": " {\r\n   \"feedback\": \"sample\",\r\n   \"starRating\": 7.5,\r\n   \"email\" : \"asda@sm\",\r\n    \"userName\": \"abs1cj\"\r\n  }"
				},
				"description": "A request that that fails multiple business rules."
			},
			"response": [
				{
					"id": "ab5308ea-dca1-443f-9e41-2bd19b4170cd",
					"name": "SaveFeedBack - Invalid Email",
					"originalRequest": {
						"url": "http://localhost:8000/api/user",
						"method": "POST",
						"header": [
							{
								"key": "Content-Type",
								"name": "Content-Type",
								"value": "application/json",
								"description": ""
							}
						],
						"body": {
							"mode": "raw",
							"raw": " {\r\n   \"feedback\": \"\",\r\n   \"starRating\": 1,\r\n   \"email\" : \"asdkdsss.com\",\r\n    \"userName\": \"abcj\"\r\n  }"
						}
					},
					"status": "OK",
					"code": 200,
					"_postman_previewlanguage": "json",
					"_postman_previewtype": "text",
					"header": [
						{
							"name": "access-control-allow-origin",
							"key": "access-control-allow-origin",
							"value": "*",
							"description": "Specifies a URI that may access the resource. For requests without credentials, the server may specify '*' as a wildcard, thereby allowing any origin to access the resource."
						},
						{
							"name": "content-type",
							"key": "content-type",
							"value": "application/json; charset=utf-8",
							"description": "The mime type of this content"
						},
						{
							"name": "date",
							"key": "date",
							"value": "Sun, 02 Feb 2020 18:58:53 GMT",
							"description": "The date and time that the message was sent"
						},
						{
							"name": "server",
							"key": "server",
							"value": "Kestrel",
							"description": "A name for the server"
						},
						{
							"name": "transfer-encoding",
							"key": "transfer-encoding",
							"value": "chunked",
							"description": "The form of encoding used to safely transfer the entity to the user. Currently defined methods are: chunked, compress, deflate, gzip, identity."
						},
						{
							"name": "x-powered-by",
							"key": "x-powered-by",
							"value": "ASP.NET",
							"description": "Specifies the technology (ASP.NET, PHP, JBoss, e.g.) supporting the web application (version details are often in X-Runtime, X-Version, or X-AspNet-Version)"
						},
						{
							"name": "x-sourcefiles",
							"key": "x-sourcefiles",
							"value": "=?UTF-8?B?QzpcY2luXFRyaW1ibGVcVWx0aW1hdGVRdWFycnkuQVBJXGFwaVx1c2Vy?=",
							"description": "Custom header"
						}
					],
					"cookie": [],
					"responseTime": 10179,
					"body": "[\r\n  \"'Email' is not a valid email address.\"\r\n]"
				},
				{
					"id": "1c00e598-a356-44e6-820c-b3999f8b18b3",
					"name": "SaveFeedBack - InvalidRating",
					"originalRequest": {
						"url": "http://localhost:8000/api/user",
						"method": "POST",
						"header": [
							{
								"key": "Content-Type",
								"name": "Content-Type",
								"value": "application/json",
								"description": ""
							}
						],
						"body": {
							"mode": "raw",
							"raw": " {\r\n   \"feedback\": \"\",\r\n   \"starRating\": 9,\r\n   \"email\" : \"asda@skkdsss.com\",\r\n    \"userName\": \"abcj\"\r\n  }"
						}
					},
					"status": "OK",
					"code": 200,
					"_postman_previewlanguage": "json",
					"_postman_previewtype": "text",
					"header": [
						{
							"name": "access-control-allow-origin",
							"key": "access-control-allow-origin",
							"value": "*",
							"description": "Specifies a URI that may access the resource. For requests without credentials, the server may specify '*' as a wildcard, thereby allowing any origin to access the resource."
						},
						{
							"name": "content-type",
							"key": "content-type",
							"value": "application/json; charset=utf-8",
							"description": "The mime type of this content"
						},
						{
							"name": "date",
							"key": "date",
							"value": "Sun, 02 Feb 2020 18:59:35 GMT",
							"description": "The date and time that the message was sent"
						},
						{
							"name": "server",
							"key": "server",
							"value": "Kestrel",
							"description": "A name for the server"
						},
						{
							"name": "transfer-encoding",
							"key": "transfer-encoding",
							"value": "chunked",
							"description": "The form of encoding used to safely transfer the entity to the user. Currently defined methods are: chunked, compress, deflate, gzip, identity."
						},
						{
							"name": "x-powered-by",
							"key": "x-powered-by",
							"value": "ASP.NET",
							"description": "Specifies the technology (ASP.NET, PHP, JBoss, e.g.) supporting the web application (version details are often in X-Runtime, X-Version, or X-AspNet-Version)"
						},
						{
							"name": "x-sourcefiles",
							"key": "x-sourcefiles",
							"value": "=?UTF-8?B?QzpcY2luXFRyaW1ibGVcVWx0aW1hdGVRdWFycnkuQVBJXGFwaVx1c2Vy?=",
							"description": "Custom header"
						}
					],
					"cookie": [],
					"responseTime": 32,
					"body": "[\r\n  \"'Star Rating' must be between 1 and 5. You entered 9.\"\r\n]"
				},
				{
					"id": "04dee8e9-4e2e-4df6-872c-03901017c0ee",
					"name": "SaveFeedBack- Empty Email",
					"originalRequest": {
						"url": "http://localhost:8000/api/user",
						"method": "POST",
						"header": [
							{
								"key": "Content-Type",
								"name": "Content-Type",
								"value": "application/json",
								"description": ""
							}
						],
						"body": {
							"mode": "raw",
							"raw": " {\r\n   \"feedback\": \"\",\r\n   \"starRating\": 1,\r\n   \"userName\": \"abcj\"\r\n  }"
						}
					},
					"status": "OK",
					"code": 200,
					"_postman_previewlanguage": "json",
					"_postman_previewtype": "text",
					"header": [
						{
							"name": "access-control-allow-origin",
							"key": "access-control-allow-origin",
							"value": "*",
							"description": "Specifies a URI that may access the resource. For requests without credentials, the server may specify '*' as a wildcard, thereby allowing any origin to access the resource."
						},
						{
							"name": "content-type",
							"key": "content-type",
							"value": "application/json; charset=utf-8",
							"description": "The mime type of this content"
						},
						{
							"name": "date",
							"key": "date",
							"value": "Sun, 02 Feb 2020 19:06:53 GMT",
							"description": "The date and time that the message was sent"
						},
						{
							"name": "server",
							"key": "server",
							"value": "Kestrel",
							"description": "A name for the server"
						},
						{
							"name": "transfer-encoding",
							"key": "transfer-encoding",
							"value": "chunked",
							"description": "The form of encoding used to safely transfer the entity to the user. Currently defined methods are: chunked, compress, deflate, gzip, identity."
						},
						{
							"name": "x-powered-by",
							"key": "x-powered-by",
							"value": "ASP.NET",
							"description": "Specifies the technology (ASP.NET, PHP, JBoss, e.g.) supporting the web application (version details are often in X-Runtime, X-Version, or X-AspNet-Version)"
						},
						{
							"name": "x-sourcefiles",
							"key": "x-sourcefiles",
							"value": "=?UTF-8?B?QzpcY2luXFRyaW1ibGVcVWx0aW1hdGVRdWFycnkuQVBJXGFwaVx1c2Vy?=",
							"description": "Custom header"
						}
					],
					"cookie": [],
					"responseTime": 130,
					"body": "[\r\n  \"'Email' should not be empty.\"\r\n]"
				},
				{
					"id": "90c5cab4-66cf-4257-b42c-1cb52902ce2e",
					"name": "SaveFeedBack - Incorrect UserName",
					"originalRequest": {
						"url": "http://localhost:8000/api/user",
						"method": "POST",
						"header": [
							{
								"key": "Content-Type",
								"name": "Content-Type",
								"value": "application/json",
								"description": ""
							}
						],
						"body": {
							"mode": "raw",
							"raw": " {\r\n   \"feedback\": \"\",\r\n   \"starRating\": 1,\r\n   \"email\" : \"asda@skkdsss.com\",\r\n    \"userName\": \"ab1cj\"\r\n  }"
						}
					},
					"status": "OK",
					"code": 200,
					"_postman_previewlanguage": "json",
					"_postman_previewtype": "text",
					"header": [
						{
							"name": "access-control-allow-origin",
							"key": "access-control-allow-origin",
							"value": "*",
							"description": "Specifies a URI that may access the resource. For requests without credentials, the server may specify '*' as a wildcard, thereby allowing any origin to access the resource."
						},
						{
							"name": "content-type",
							"key": "content-type",
							"value": "application/json; charset=utf-8",
							"description": "The mime type of this content"
						},
						{
							"name": "date",
							"key": "date",
							"value": "Sun, 02 Feb 2020 19:55:09 GMT",
							"description": "The date and time that the message was sent"
						},
						{
							"name": "server",
							"key": "server",
							"value": "Kestrel",
							"description": "A name for the server"
						},
						{
							"name": "transfer-encoding",
							"key": "transfer-encoding",
							"value": "chunked",
							"description": "The form of encoding used to safely transfer the entity to the user. Currently defined methods are: chunked, compress, deflate, gzip, identity."
						},
						{
							"name": "x-powered-by",
							"key": "x-powered-by",
							"value": "ASP.NET",
							"description": "Specifies the technology (ASP.NET, PHP, JBoss, e.g.) supporting the web application (version details are often in X-Runtime, X-Version, or X-AspNet-Version)"
						},
						{
							"name": "x-sourcefiles",
							"key": "x-sourcefiles",
							"value": "=?UTF-8?B?QzpcY2luXFRyaW1ibGVcVWx0aW1hdGVRdWFycnkuQVBJXGFwaVx1c2Vy?=",
							"description": "Custom header"
						}
					],
					"cookie": [],
					"responseTime": 113,
					"body": "[\r\n  \"'User Name' is not in the correct format.\"\r\n]"
				}
			]
		},
		{
			"name": "GetUserFeedBacks",
			"event": [
				{
					"listen": "test",
					"script": {
						"type": "text/javascript",
						"exec": [
							"tests[\"Status code is 200\"] = responseCode.code === 200;"
						]
					}
				}
			],
			"request": {
				"url": "http://localhost:8000/api/user",
				"method": "GET",
				"header": [],
				"body": {},
				"description": "To get all the feedbacks from users"
			},
			"response": []
		},
		{
			"name": "GetFeedbackByFeedbackId",
			"event": [
				{
					"listen": "test",
					"script": {
						"type": "text/javascript",
						"exec": [
							"tests[\"Status code is 200\"] = responseCode.code === 200;"
						]
					}
				}
			],
			"request": {
				"url": "http://localhost:8000/api/user/1",
				"method": "GET",
				"header": [],
				"body": {},
				"description": "To get feedback by feedbackId"
			},
			"response": []
		}
	]
}